Conducting a moderated mediation analysis • JSmediation
…
The first function we used, standardize_variable, allows us to center and reduce (to standardize) a set of variables (here: sdo and linkedfate). The suffix argument of this function is used to name the standardized variables. Here, because we set suffix = "c", the new variables are named sdo_c and linkedfate_c. When the suffix argument is blank, original variables are overwritten. Because JSmediation was designed to fit within the tidyverse, standardize_variable is especially useful in a dplyr chain.

Here, we also used a second function from JSmediation: build_contrast. This function takes a character vector as a first argument and, then, returns a contrast-coded variables. It is designed for variables with two conditions, which is the case of condition. Because we want to include the transformed variable in ho_et_al, we can use the dplyr::mutate function which create (or modify) variables. With this method, we contrast-coded the condition variable.

ho_et_al %>% 
  dplyr::select(dplyr::starts_with("condition"))
#> # A tibble: 824 × 2
#>    condition           condition_c
#>    <chr>                     <dbl>
#>  1 Low discrimination         -0.5
#>  2 High discrimination         0.5
#>  3 High discrimination         0.5
#>  4 Low discrimination         -0.5
#>  5 Low discrimination         -0.5
#>  6 High discrimination         0.5
#>  7 High discrimination         0.5
#>  8 Low discrimination         -0.5
#>  9 Low discrimination         -0.5
#> 10 High discrimination         0.5
#> # … with 814 more rows
…
