Conducting a moderated mediation analysis • JSmediation
…
Here, we also used a second function from JSmediation:
build_contrast. This function takes a character vector as a
first argument and, then, returns a contrast-coded variables. It is
designed for variables with two conditions, which is the case of
condition. Because we want to include the transformed
variable in ho_et_al, we can use the
dplyr::mutate function which creates (or modify)
variables. With this method, we contrast-coded the
condition variable.

ho_et_al %>% 
  dplyr::select(dplyr::starts_with("condition"))
#> # A tibble: 824 × 2
#>    condition           condition_c
#>    <chr>                     <dbl>
#>  1 Low discrimination         -0.5
#>  2 High discrimination         0.5
#>  3 High discrimination         0.5
#>  4 Low discrimination         -0.5
#>  5 Low discrimination         -0.5
#>  6 High discrimination         0.5
#>  7 High discrimination         0.5
#>  8 Low discrimination         -0.5
#>  9 Low discrimination         -0.5
#> 10 High discrimination         0.5
#> # … with 814 more rows
…
